{
    "KPlugin": {
        "Authors": [
            {
                "Email": "pino@kde.org",
                "Name": "Pino Toscano",
                "Name[az]": "Pino Toscano",
                "Name[ca@valencia]": "Pino Toscano",
                "Name[ca]": "Pino Toscano",
                "Name[cs]": "Pino Toscano",
                "Name[da]": "Pino Toscano",
                "Name[de]": "Pino Toscano",
                "Name[el]": "Pino Toscano",
                "Name[en_GB]": "Pino Toscano",
                "Name[es]": "Pino Toscano",
                "Name[et]": "Pino Toscano",
                "Name[eu]": "Pino Toscano",
                "Name[fi]": "Pino Toscano",
                "Name[fr]": "Pino Toscano",
                "Name[gl]": "Pino Toscano",
                "Name[ia]": "Pino Toscano",
                "Name[it]": "Pino Toscano",
                "Name[ko]": "Pino Toscano",
                "Name[lt]": "Pino Toscano",
                "Name[nl]": "Pino Toscano",
                "Name[nn]": "Pino Toscano",
                "Name[pl]": "Pino Toscano",
                "Name[pt]": "Pino Toscano",
                "Name[pt_BR]": "Pino Toscano",
                "Name[ru]": "Pino Toscano",
                "Name[sk]": "Pino Toscano",
                "Name[sl]": "Pino Toscano",
                "Name[sr@ijekavian]": "Пино Тоскано",
                "Name[sr@ijekavianlatin]": "Pino Toskano",
                "Name[sr@latin]": "Pino Toskano",
                "Name[sr]": "Пино Тоскано",
                "Name[sv]": "Pino Toscano",
                "Name[tr]": "Pino Toscano",
                "Name[uk]": "Pino Toscano",
                "Name[x-test]": "xxPino Toscanoxx",
                "Name[zh_CN]": "Pino Toscano",
                "Name[zh_TW]": "Pino Toscano"
            }
        ],
        "Copyright": "© 2006-2008 Pino Toscano",
        "Copyright[az]": "© 2006-2008 Pino Toscano",
        "Copyright[ca@valencia]": "© 2006-2008 Pino Toscano",
        "Copyright[ca]": "© 2006-2008 Pino Toscano",
        "Copyright[cs]": "© 2006-2008 Pino Toscano",
        "Copyright[da]": "© 2006-2008 Pino Toscano",
        "Copyright[de]": "© 2006-2008 Pino Toscano",
        "Copyright[el]": "© 2006-2008 Pino Toscano",
        "Copyright[en_GB]": "© 2006-2008 Pino Toscano",
        "Copyright[es]": "© 2006-2008 Pino Toscano",
        "Copyright[et]": "© 2006-2008: Pino Toscano",
        "Copyright[eu]": "© 2006-2008 Pino Toscano",
        "Copyright[fi]": "© 2006–2008 Pino Toscano",
        "Copyright[fr]": "© 2006-2008 Pino Toscano",
        "Copyright[gl]": "© 2006-2008 Pino Toscano",
        "Copyright[ia]": "© 2006-2008 Pino Toscano",
        "Copyright[it]": "© 2006-2008 Pino Toscano",
        "Copyright[ko]": "© 2006-2008 Pino Toscano",
        "Copyright[lt]": "© 2006-2008 Pino Toscano",
        "Copyright[nl]": "© 2006-2008 Pino Toscano",
        "Copyright[nn]": "© 2006–2008 Pino Toscano",
        "Copyright[pl]": "© 2006-2008 Pino Toscano",
        "Copyright[pt]": "© 2006-2008 Pino Toscano",
        "Copyright[pt_BR]": "© 2006-2008 Pino Toscano",
        "Copyright[ru]": "© Pino Toscano, 2006-2008",
        "Copyright[sk]": "© 2006-2008 Pino Toscano",
        "Copyright[sl]": "© 2006-2008 Pino Toscano",
        "Copyright[sr@ijekavian]": "© 2006–2008, Пино Тоскано",
        "Copyright[sr@ijekavianlatin]": "© 2006–2008, Pino Toskano",
        "Copyright[sr@latin]": "© 2006–2008, Pino Toskano",
        "Copyright[sr]": "© 2006–2008, Пино Тоскано",
        "Copyright[sv]": "© 2006-2008 Pino Toscano",
        "Copyright[tr]": "© 2006-2008 Pino Toscano",
        "Copyright[uk]": "© Pino Toscano, 2006–2008",
        "Copyright[x-test]": "xx© 2006-2008 Pino Toscanoxx",
        "Copyright[zh_CN]": "© 2006-2008 Pino Toscano",
        "Copyright[zh_TW]": "© 2006-2008 Pino Toscano",
        "Description": "A TIFF backend",
        "Description[az]": "TİFF modulu",
        "Description[ca@valencia]": "Un dorsal per al TIFF",
        "Description[ca]": "Un dorsal per al TIFF",
        "Description[cs]": "Podpůrná vrstva pro TIFF",
        "Description[da]": "En TIFF-backend",
        "Description[de]": "Ein Anzeigemodul für TIFF",
        "Description[el]": "Σύστημα υποστήριξης TIFF",
        "Description[en_GB]": "A TIFF backend",
        "Description[es]": "Un motor para TIFF",
        "Description[et]": "TIFF-i taustaprogramm",
        "Description[eu]": "TIFFen bizkarraldeko bat",
        "Description[fi]": "TIFF-taustaosa",
        "Description[fr]": "Un moteur TIFF",
        "Description[gl]": "Unha infraestrutura para TIFF",
        "Description[ia]": "Un retro-administration de TIFF",
        "Description[it]": "Un backend per TIFF",
        "Description[ko]": "TIFF 백엔드",
        "Description[lt]": "TIFF programinė sąsaja",
        "Description[nl]": "Een TIFF-backend",
        "Description[nn]": "Ein TIFF-motor",
        "Description[pl]": "Jeden z silników TIFF",
        "Description[pt]": "Uma infra-estrutura de TIFF",
        "Description[pt_BR]": "Uma infraestrutura de imagens TIFF",
        "Description[ru]": "Модуль поддержки формата TIFF",
        "Description[sk]": "TIFF backend",
        "Description[sl]": "Zaledje za TIFF",
        "Description[sr@ijekavian]": "Позадина за ТИФФ",
        "Description[sr@ijekavianlatin]": "Pozadina za TIFF",
        "Description[sr@latin]": "Pozadina za TIFF",
        "Description[sr]": "Позадина за ТИФФ",
        "Description[sv]": "Ett TIFF-gränssnitt",
        "Description[tr]": "Bir TIFF arka ucu",
        "Description[uk]": "Програма для TIFF",
        "Description[x-test]": "xxA TIFF backendxx",
        "Description[zh_CN]": "TIFF 后端",
        "Description[zh_TW]": "TIFF 後端介面",
        "Id": "okular_tiff",
        "License": "GPL",
        "MimeTypes": [
            "image/tiff"
        ],
        "Name": "TIFF Backend",
        "Name[az]": "TİFF modulu",
        "Name[ca@valencia]": "Dorsal TIFF",
        "Name[ca]": "Dorsal TIFF",
        "Name[cs]": "Podpůrná vrstva pro TIFF",
        "Name[da]": "TIFF-backend",
        "Name[de]": "Anzeigemodul für TIFF",
        "Name[el]": "Σύστημα υποστήριξης TIFF",
        "Name[en_GB]": "TIFF Backend",
        "Name[es]": "Motor para TIFF",
        "Name[et]": "TIFF-i taustaprogramm",
        "Name[eu]": "TIFFen bizkarraldekoa",
        "Name[fi]": "TIFF-taustaosa",
        "Name[fr]": "Moteur TIFF",
        "Name[gl]": "Infraestrutura para TIFF",
        "Name[ia]": "Retro-Administration de TIFF",
        "Name[it]": "Backend TIFF",
        "Name[ko]": "TIFF 백엔드",
        "Name[lt]": "TIFF programinė sąsaja",
        "Name[nl]": "TIFF-backend",
        "Name[nn]": "TIFF-motor",
        "Name[pl]": "Silnik TIFF",
        "Name[pt]": "Infra-Estrutura de TIFF",
        "Name[pt_BR]": "Infraestrutura TIFF",
        "Name[ru]": "Модуль поддержки формата TIFF",
        "Name[sk]": "TIFF Backend",
        "Name[sl]": "Zaledje za TIFF",
        "Name[sr@ijekavian]": "Позадина за ТИФФ",
        "Name[sr@ijekavianlatin]": "Pozadina za TIFF",
        "Name[sr@latin]": "Pozadina za TIFF",
        "Name[sr]": "Позадина за ТИФФ",
        "Name[sv]": "TIFF-gränssnitt",
        "Name[tr]": "TIFF Arka Ucu",
        "Name[uk]": "Модуль TIFF",
        "Name[x-test]": "xxTIFF Backendxx",
        "Name[zh_CN]": "TIFF 后端",
        "Name[zh_TW]": "TIFF 後端介面",
        "ServiceTypes": [
            "okular/Generator"
        ],
        "Version": "0.2.4"
    },
    "X-KDE-Priority": 4,
    "X-KDE-okularAPIVersion": 1,
    "X-KDE-okularHasInternalSettings": false
}
